(module Connector_Audio:JackPCB (layer F.Cu) (tedit 5EDB8B80)
  (fp_text reference REF** (at -3.81 -5.08) (layer F.SilkS)
    (effects (font (size 1 1) (thickness 0.15)))
  )
  (fp_text value JackPCB (at -3.81 -6.35) (layer F.Fab)
    (effects (font (size 1 1) (thickness 0.15)))
  )
  (fp_line (start 12 -6) (end 12 6) (layer F.SilkS) (width 0.12))
  (fp_line (start 0 6) (end 12 6) (layer F.SilkS) (width 0.12))
  (fp_line (start 0 -6) (end 12 -6) (layer F.SilkS) (width 0.12))
  (fp_line (start -1.27 2.54) (end 0 2.54) (layer F.SilkS) (width 0.12))
  (fp_line (start -1.27 0) (end -1.27 2.54) (layer F.SilkS) (width 0.12))
  (fp_line (start -1.27 -2.54) (end 0 -2.54) (layer F.SilkS) (width 0.12))
  (fp_line (start -1.27 0) (end -1.27 -2.54) (layer F.SilkS) (width 0.12))
  (fp_line (start 0 -6) (end 0 6) (layer F.SilkS) (width 0.12))
  (pad 6 thru_hole circle (at 10 -5.08) (size 2 2) (drill 1) (layers *.Cu *.Mask))
  (pad 5 thru_hole circle (at 4 0) (size 2 2) (drill 1) (layers *.Cu *.Mask))
  (pad 4 thru_hole circle (at 10 5.08) (size 2 2) (drill 1) (layers *.Cu *.Mask))
  (pad 3 thru_hole circle (at 10 2.54) (size 2 2) (drill 1) (layers *.Cu *.Mask))
  (pad 1 thru_hole circle (at 10 -2.54) (size 2 2) (drill 1) (layers *.Cu *.Mask))
)
