(module StopUp (layer F.Cu) (tedit 5F8C6649)
  (fp_text reference REF** (at 5.08 6.35) (layer F.SilkS)
    (effects (font (size 1 1) (thickness 0.15)))
  )
  (fp_text value StepUp (at 11.43 6.35) (layer F.Fab)
    (effects (font (size 1 1) (thickness 0.15)))
  )
  (fp_line (start 21.59 13.97) (end 21.59 -2.54) (layer F.SilkS) (width 0.12))
  (fp_line (start 21.59 -2.54) (end -2.54 -2.54) (layer F.SilkS) (width 0.12))
  (fp_line (start -2.54 -2.54) (end -2.54 13.97) (layer F.SilkS) (width 0.12))
  (fp_line (start -2.54 13.97) (end 21.59 13.97) (layer F.SilkS) (width 0.12))
  (pad 1 thru_hole circle (at 0 0) (size 3 3) (drill 0.762) (layers *.Cu *.Mask))
  (pad 2 thru_hole circle (at 0 11.43) (size 3 3) (drill 0.762) (layers *.Cu *.Mask))
  (pad 3 thru_hole circle (at 17.78 0) (size 3 3) (drill 0.762) (layers *.Cu *.Mask))
  (pad 4 thru_hole circle (at 17.78 11.43) (size 3 3) (drill 0.762) (layers *.Cu *.Mask))
)
